<?xml version="1.0" encoding="UTF-8"?>
<svg width="223px" height="222px" viewBox="0 0 223 222" version="1.1" xmlns="http://www.w3.org/2000/svg" xmlns:xlink="http://www.w3.org/1999/xlink">
    <title>animals@1x</title>
    <defs>
        <filter x="-83.8%" y="-83.8%" width="267.5%" height="267.5%" filterUnits="objectBoundingBox" id="filter-1">
            <feOffset dx="0" dy="15" in="SourceAlpha" result="shadowOffsetOuter1"></feOffset>
            <feGaussianBlur stdDeviation="27.5" in="shadowOffsetOuter1" result="shadowBlurOuter1"></feGaussianBlur>
            <feColorMatrix values="0 0 0 0 0.615686275   0 0 0 0 0.639215686   0 0 0 0 0.705882353  0 0 0 0.16 0" type="matrix" in="shadowBlurOuter1" result="shadowMatrixOuter1"></feColorMatrix>
            <feMerge>
                <feMergeNode in="shadowMatrixOuter1"></feMergeNode>
                <feMergeNode in="SourceGraphic"></feMergeNode>
            </feMerge>
        </filter>
    </defs>
    <g id="Page-1" stroke="none" stroke-width="1" fill="none" fill-rule="evenodd">
        <g id="Category" transform="translate(10.000000, -478.000000)" fill-rule="nonzero">
            <g id="1-copy-6" filter="url(#filter-1)" transform="translate(20.000000, 535.000000)">
                <g id="Group-10" transform="translate(44.000000, 29.000000)">
                    <g id="Icon" transform="translate(12.000000, 0.000000)">
                        <g id="animals" transform="translate(13.000000, 13.000000)">
                            <path d="M0.0448608281,20.8936157 C-0.0499877812,20.5177002 0.178710938,20.1355591 0.555725109,20.0414429 C1.61700441,19.7744751 1.79534911,19.2533569 2.00390625,18.2127685 C2.38751222,16.293457 3.05841066,15.5738526 5.041626,15.1779785 C6.41271975,14.9031372 6.78790284,14.5543213 7.06951903,13.1511841 C7.45092773,11.2432251 8.11230469,10.513916 10.1072388,10.1156616 C10.611145,10.0147705 11.0465698,9.92761228 11.3789063,9.66064453 C11.6810303,9.41436769 12.1239624,9.46435547 12.3669434,9.7670288 C12.6106568,10.0689698 12.5632324,10.5115357 12.2605591,10.7545166 C11.6603393,11.2382813 10.9812012,11.3739624 10.3826294,11.4933472 C9.01135256,11.7681885 8.72973633,12.0232544 8.44830323,13.4263916 C8.06451417,15.3460693 7.30059816,16.1597901 5.31756591,16.5556641 C3.93072511,16.833252 3.66174319,17.0978393 3.38269041,18.4887085 C3.07067869,20.0493164 2.52227784,20.9983521 0.897583031,21.4041138 C0.518737781,21.4987793 0.138244641,21.2680664 0.0448608281,20.8936157 Z" id="Path" fill="#AD0B70"></path>
                            <path d="M0.151977562,13.8083496 C-0.0719604375,13.4912109 0.00439453125,13.0528565 0.321533203,12.8291016 C0.885864281,12.4312134 1.50878906,12.3063354 2.05883789,12.1964722 C3.42993164,11.9216309 3.80511473,11.572815 4.08673097,10.1696777 C4.47363281,8.23461914 5.15643309,7.52764894 7.12371825,7.13488772 C7.62432862,7.03472902 8.05627444,6.94812009 8.38714598,6.6860962 C8.69055178,6.44238281 9.13275145,6.49456786 9.37445067,6.79998778 C9.61614989,7.10394286 9.56542969,7.54577634 9.26055909,7.78674319 C8.66455078,8.25952148 7.9921875,8.39392088 7.3996582,8.51257322 C6.02838136,8.78741456 5.74694822,9.04248047 5.46533203,10.4456177 C5.07843019,12.3806763 4.302063,13.1813965 2.33477784,13.5743408 C1.86163331,13.6690064 1.45385742,13.7506714 1.13177489,13.9777222 C0.813903797,14.201294 0.376098656,14.1253052 0.151977563,13.8083496 L0.151977562,13.8083496 Z" id="Path" fill="#AD0B70"></path>
                            <path d="M4.08709716,23.7028198 C3.8633423,23.3858643 3.93878175,22.9473267 4.25610352,22.7230224 C4.75964353,22.3690796 4.86437991,21.8069458 4.98724364,21.1942749 C5.37707522,19.244751 6.07141116,18.5482177 8.02514648,18.1585693 C9.411438,17.8807983 9.77453616,17.520813 10.0530396,16.1312256 C10.4417724,14.1886597 11.1304321,13.4882812 13.0900268,13.0969849 C13.6448364,12.9858398 14.1240234,12.8904419 14.4708252,12.5438232 C14.5594482,12.4546509 14.6328735,12.3579712 14.6953125,12.2488403 C14.8855591,11.9106445 15.3147583,11.7912598 15.6538696,11.9853516 C15.9916992,12.1768799 16.1098022,12.6057129 15.9175415,12.9433594 C15.7946777,13.1594238 15.6428833,13.3591919 15.4665527,13.5360718 C14.817627,14.1846314 14.0465698,14.3389893 13.3659668,14.4748535 C11.9890137,14.7506104 11.7121582,15.0095215 11.4316406,16.4071655 C11.0529785,18.3035888 10.3037109,19.1361694 8.30108644,19.536438 C6.90948488,19.8149414 6.64398192,20.0846557 6.36602784,21.4700317 C6.17376708,22.4326172 5.94323728,23.2529297 5.06762695,23.8716431 C4.74884034,24.0946655 4.31195067,24.0197754 4.08709716,23.7028198 L4.08709716,23.7028198 Z" id="Path" fill="#AD0B70"></path>
                            <path d="M8.66363527,23.9472656 C8.30456541,23.7989502 8.13354492,23.3886108 8.28112791,23.0297241 C8.81323242,21.7441406 9.82543945,21.3760987 11.0077515,21.1400757 C12.3790283,20.8654175 12.7542114,20.5166016 13.0356445,19.1134643 C13.420166,17.1901245 14.0928955,16.4732666 16.0720825,16.0777588 C16.4359131,16.0050659 16.7799682,15.9364013 17.0635987,15.7985229 C17.4171753,15.6309815 17.8339233,15.7750854 18.0036621,16.1229858 C18.1732177,16.4723511 18.0276489,16.8929443 17.678833,17.0625 C17.2324219,17.2792969 16.7827148,17.3692017 16.3480224,17.4556275 C14.9501953,17.7357788 14.6907349,18.0117187 14.4144287,19.3884888 C14.0306396,21.3081665 13.2667237,22.1218872 11.2838745,22.5179443 C10.5005493,22.6746826 9.89465334,22.807251 9.58172606,23.5649414 C9.43322756,23.9241943 9.02252198,24.0941162 8.66363527,23.9472656 L8.66363527,23.9472656 Z" id="Path" fill="#AD0B70"></path>
                            <path d="M20.9296875,3.10821534 C17.0625,-0.770507813 10.9594116,-1.05157472 6.74066161,2.44757081 C6.09375,2.98168945 5.8125,3.79669191 5.99523928,4.58367919 C6.19207762,5.55340575 6.3046875,6.38250731 7.0078125,7.08508303 C7.65472411,7.73144531 8.42797852,7.88598633 9.1171875,8.01251222 C9.66558839,8.12493895 10.1436768,8.22326663 10.4952393,8.57464598 C10.8468018,8.91192628 10.9312134,9.38964844 11.0436401,9.95178225 C11.1842651,10.6263428 11.3389893,11.399231 11.9859009,12.0457763 C12.6328125,12.6921387 13.40625,12.8466797 14.0811768,12.9873047 C14.6436768,13.0997315 15.1217651,13.1980591 15.4592285,13.5353393 C15.810791,13.8867188 15.9093018,14.3644409 16.0217285,14.9124756 C16.373291,16.6690064 17.2311401,17.9057007 19.2420044,17.9057007 C20.3389893,17.9057007 21.1827393,17.498291 21.84375,16.8376465 C22.5045776,16.177185 22.982666,15.2497559 23.3624268,14.2379151 C24.796875,10.3873901 23.8405151,6.0170288 20.9296875,3.10821534 Z" id="Path" fill="#AD0B70"></path>
                            <path d="M23.3624268,14.2379151 C22.9828491,15.2497559 22.5045776,16.177185 21.84375,16.8376465 C21.1827393,17.4981079 20.3389893,17.9057007 19.2421875,17.9057007 C17.2311401,17.9057007 16.3734741,16.6690064 16.0219116,14.9124756 C15.9093018,14.3644409 15.810791,13.8867188 15.4592285,13.5353393 C15.1217651,13.1980591 14.6436768,13.0997315 14.0811768,12.9873047 C13.40625,12.8466797 12.6328125,12.6921387 11.9859009,12.0457763 L20.9296875,3.10821534 C23.8405151,6.0170288 24.796875,10.3873901 23.3624268,14.2379151 Z" id="Path" fill="#F87EA7"></path>
                            <path d="M21.1547241,9.65679933 C21.1968384,10.050293 20.9296875,10.4014893 20.5360107,10.4436035 L20.4515991,10.4436035 C20.1000366,10.4436035 19.8046875,10.1766357 19.7623901,9.82525636 C19.59375,8.40600586 18.9468384,7.08508303 17.9483643,6.0873413 C16.921875,5.04730223 15.6141357,4.42913817 14.1655884,4.27441406 C13.7858276,4.23248292 13.5047607,3.88110352 13.546875,3.50170898 C13.5889893,3.10821534 13.9405518,2.82714844 14.3203125,2.86926272 C16.078125,3.06610106 17.6812134,3.82489013 18.9468384,5.08959961 C20.1703491,6.31219481 20.9577026,7.94238281 21.1547241,9.65679933 Z" id="Path" fill="#FFFFFF"></path>
                            <path d="M21.1547241,9.65679933 C21.1968384,10.050293 20.9296875,10.4014893 20.5360107,10.4436035 L20.4515991,10.4436035 C20.1000366,10.4436035 19.8046875,10.1766357 19.7623901,9.82525636 C19.59375,8.40600586 18.9468384,7.08508303 17.9483643,6.0873413 L18.9468384,5.08959961 C20.1703491,6.31219481 20.9577026,7.94238281 21.1547241,9.65679933 Z" id="Path" fill="#FFFFFF"></path>
                        </g>
                    </g>
                </g>
            </g>
        </g>
    </g>
</svg>