<?xml version="1.0" encoding="UTF-8"?>
<svg width="16px" height="16px" viewBox="0 0 16 16" version="1.1" xmlns="http://www.w3.org/2000/svg" xmlns:xlink="http://www.w3.org/1999/xlink">
    <title>close@1x</title>
    <g id="Symbols" stroke="none" stroke-width="1" fill="none" fill-rule="evenodd">
        <g id="Components-/-Button-/-5.-Close" transform="translate(-8.000000, -8.000000)">
            <g id="close" transform="translate(8.000000, 8.000000)">
                <rect id="Rectangle" x="0" y="0" width="16" height="16"></rect>
                <g id="x" stroke-linecap="round" stroke-linejoin="round" transform="translate(4.480000, 4.480000)" stroke="#16212D" stroke-width="2">
                    <line x1="7.04" y1="0" x2="0" y2="7.04" id="Path"></line>
                    <line x1="0" y1="0" x2="7.04" y2="7.04" id="Path"></line>
                </g>
            </g>
        </g>
    </g>
</svg>