<?xml version="1.0" encoding="UTF-8"?>
<svg width="224px" height="218px" viewBox="0 0 224 218" version="1.1" xmlns="http://www.w3.org/2000/svg" xmlns:xlink="http://www.w3.org/1999/xlink">
    <title>education@1x</title>
    <defs>
        <filter x="-83.8%" y="-83.8%" width="267.5%" height="267.5%" filterUnits="objectBoundingBox" id="filter-1">
            <feOffset dx="0" dy="15" in="SourceAlpha" result="shadowOffsetOuter1"></feOffset>
            <feGaussianBlur stdDeviation="27.5" in="shadowOffsetOuter1" result="shadowBlurOuter1"></feGaussianBlur>
            <feColorMatrix values="0 0 0 0 0.615686275   0 0 0 0 0.639215686   0 0 0 0 0.705882353  0 0 0 0.16 0" type="matrix" in="shadowBlurOuter1" result="shadowMatrixOuter1"></feColorMatrix>
            <feMerge>
                <feMergeNode in="shadowMatrixOuter1"></feMergeNode>
                <feMergeNode in="SourceGraphic"></feMergeNode>
            </feMerge>
        </filter>
    </defs>
    <g id="Page-1" stroke="none" stroke-width="1" fill="none" fill-rule="evenodd">
        <g id="Category" transform="translate(11.000000, -305.000000)" fill-rule="nonzero">
            <g id="1-copy-3" filter="url(#filter-1)" transform="translate(20.000000, 360.000000)">
                <g id="Group-10" transform="translate(44.000000, 29.000000)">
                    <g id="Icon" transform="translate(12.000000, 0.000000)">
                        <g id="education" transform="translate(12.000000, 15.000000)">
                            <path d="M20.8607852,8.85117187 C20.7239297,8.66835937 20.4951602,8.56171875 20.2667969,8.56171875 L5.73315234,8.56171875 C5.50478906,8.56171875 5.27607031,8.66835937 5.13916406,8.85117187 C4.98666797,9.03398437 4.94091406,9.27768359 5.00190234,9.49096484 L6.15971484,14.2745586 C6.20546875,14.4421367 6.31200781,14.5944297 6.44906641,14.7010703 C8.38393359,16.1483867 10.6843242,16.8644531 13,16.8644531 C15.3156758,16.8644531 17.6160664,16.1483867 19.550832,14.7011211 C19.6878906,14.5944805 19.7944297,14.4421875 19.8401836,14.2746094 L20.9979961,9.49101562 C21.0590352,9.27768359 21.0132813,9.03398437 20.8607852,8.85117187 Z" id="Path" fill="#4BA088"></path>
                            <path d="M20.9980469,9.49096484 L19.8402344,14.2745586 C19.7944805,14.4421367 19.6879414,14.5944297 19.5508828,14.7010703 C17.6160664,16.1483867 15.3156758,16.8644531 13,16.8644531 L13,8.56171875 L20.2668477,8.56171875 C20.4952109,8.56171875 20.7239297,8.66835937 20.8608359,8.85117187 C21.0132812,9.03398437 21.0590352,9.27768359 20.9980469,9.49096484 Z" id="Path" fill="#84D0BB"></path>
                            <path d="M13,0 C13.1219766,0 13.2285664,0.0304179688 13.3351055,0.076171875 L25.5733867,6.16992188 C25.8324219,6.30703125 26,6.56601563 26,6.85546875 C26,7.14492187 25.8324219,7.40390625 25.5733867,7.54101563 L13.3351055,13.6347656 C13.2640794,13.6652005 13.1930308,13.6889097 13.1174157,13.7013342 L13,13.7109375 C12.8780234,13.7109375 12.7714336,13.680418 12.6648945,13.6347656 L12.6648945,13.6347656 L0.426613281,7.54101563 C0.167578125,7.40390625 0,7.14492187 0,6.85546875 C0,6.56601563 0.167578125,6.30703125 0.426613281,6.16992188 L0.426613281,6.16992188 L12.6648945,0.076171875 C12.7714336,0.0304179688 12.8780234,0 13,0 L13,0 Z" id="Combined-Shape" fill="#007166"></path>
                            <path d="M23.6640625,15.234375 C23.2430352,15.234375 22.9023438,14.8936836 22.9023438,14.4726562 L22.9023438,7.6171875 C22.9023438,7.19616016 23.2430352,6.85546875 23.6640625,6.85546875 C24.0850898,6.85546875 24.4257812,7.19616016 24.4257812,7.6171875 L24.4257812,14.4726562 C24.4257812,14.8936836 24.0850898,15.234375 23.6640625,15.234375 Z" id="Path" fill="#A5EAD7"></path>
                            <path d="M23.6640625,19.296875 C23.5152734,19.296875 23.3680078,19.2537109 23.2400391,19.1674336 C23.0496094,19.0395156 21.3789062,17.8716484 21.3789062,16.25 C21.3789062,14.6283516 23.0496094,13.4604844 23.2400391,13.3325664 C23.4959258,13.1600117 23.8321484,13.1600117 24.0880352,13.3325664 C24.2785156,13.4604844 25.9492188,14.6283516 25.9492188,16.25 C25.9492188,17.8716484 24.2785156,19.0395156 24.0880859,19.1674336 C23.9601172,19.2537109 23.8128516,19.296875 23.6640625,19.296875 Z" id="Path" fill="#007166"></path>
                            <g id="Group" transform="translate(8.988281, 4.722656)" fill="#FFFFFF">
                                <path d="M7.77455859,1.32533984 C6.76924219,2.34609375 5.42841406,2.89453125 4.01171875,2.89453125 C2.59502344,2.89453125 1.25419531,2.34609375 0.248878906,1.32533984 C-0.0557578125,1.03588672 -0.0557578125,0.548386719 0.248878906,0.258933594 C0.538230469,-0.045703125 1.02583203,-0.045703125 1.31523438,0.258933594 C2.03119922,0.975 3.02148438,1.340625 4.01176953,1.340625 C5.00205469,1.340625 5.99228906,0.975 6.70830469,0.258933594 C6.99765625,-0.045703125 7.48525781,-0.045703125 7.77466016,0.258933594 C8.07919531,0.548386719 8.07919531,1.03588672 7.77455859,1.32533984 Z" id="Path"></path>
                            </g>
                            <path d="M16.7628398,6.04799609 C15.7575234,7.06875 14.4166953,7.6171875 13,7.6171875 L13,6.06323047 C13.9902852,6.06323047 14.9805195,5.69760547 15.6965352,4.98153906 C15.9858867,4.67690234 16.4734883,4.67690234 16.7628906,4.98153906 C17.0674766,5.27104297 17.0674766,5.75854297 16.7628398,6.04799609 Z" id="Path" fill="#FFFFFF"></path>
                        </g>
                    </g>
                </g>
            </g>
        </g>
    </g>
</svg>