<?xml version="1.0" encoding="UTF-8"?>
<svg width="20px" height="20px" viewBox="0 0 20 20" version="1.1" xmlns="http://www.w3.org/2000/svg" xmlns:xlink="http://www.w3.org/1999/xlink">
    <title>Filter@1x</title>
    <g id="Page-1" stroke="none" stroke-width="1" fill="none" fill-rule="evenodd">
        <g id="Foundation-List" transform="translate(-318.000000, -121.000000)">
            <g id="Group-8" transform="translate(20.000000, 104.000000)">
                <g id="Group-3" transform="translate(280.000000, 0.000000)">
                    <g id="Filter" transform="translate(18.000000, 17.000000)">
                        <rect id="Rectangle" x="0" y="0" width="20" height="20"></rect>
                        <g id="Group" transform="translate(2.000000, 2.000000)" fill="#FFFFFF" fill-rule="nonzero">
                            <g id="Shape">
                                <path d="M6.57004043,8.66666667 C6.2831907,9.6304963 5.3903402,10.3333333 4.33333333,10.3333333 C3.27632645,10.3333333 2.38347596,9.6304963 2.09662623,8.66666667 L0.667129757,8.66666667 C0.298684165,8.66666667 -1.6328624e-16,8.3707568 -1.6328624e-16,8 C-1.6328624e-16,7.63181017 0.298312813,7.33333333 0.667129757,7.33333333 L2.09662623,7.33333333 C2.38347596,6.3695037 3.27632645,5.66666667 4.33333333,5.66666667 C5.3903402,5.66666667 6.2831907,6.3695037 6.57004043,7.33333333 L15.3328702,7.33333333 C15.7013158,7.33333333 16,7.6292432 16,8 C16,8.36818983 15.7016872,8.66666667 15.3328702,8.66666667 L6.57004043,8.66666667 Z M9.42995957,13 C9.7168093,12.0361704 10.6096598,11.3333333 11.6666667,11.3333333 C12.7236735,11.3333333 13.616524,12.0361704 13.9033738,13 L15.3328702,13 C15.7013158,13 16,13.2959099 16,13.6666667 C16,14.0348565 15.7016872,14.3333333 15.3328702,14.3333333 L13.9033738,14.3333333 C13.616524,15.297163 12.7236735,16 11.6666667,16 C10.6096598,16 9.7168093,15.297163 9.42995957,14.3333333 L0.667129757,14.3333333 C0.298684165,14.3333333 -1.6328624e-16,14.0374235 -1.6328624e-16,13.6666667 C-1.6328624e-16,13.2984768 0.298312813,13 0.667129757,13 L9.42995957,13 Z M9.42995957,1.66666667 C9.7168093,0.702837017 10.6096598,-2.06171069e-17 11.6666667,-2.06171069e-17 C12.7236735,-2.06171069e-17 13.616524,0.702837017 13.9033738,1.66666667 L15.3328702,1.66666667 C15.7013158,1.66666667 16,1.96257655 16,2.33333333 C16,2.70152317 15.7016872,3 15.3328702,3 L13.9033738,3 C13.616524,3.96382963 12.7236735,4.66666667 11.6666667,4.66666667 C10.6096598,4.66666667 9.7168093,3.96382963 9.42995957,3 L0.667129757,3 C0.298684165,3 -1.6328624e-16,2.70409012 -1.6328624e-16,2.33333333 C-1.6328624e-16,1.9651435 0.298312813,1.66666667 0.667129757,1.66666667 L9.42995957,1.66666667 Z M11.6666667,3.33333333 C12.2189514,3.33333333 12.6666667,2.88561808 12.6666667,2.33333333 C12.6666667,1.78104858 12.2189514,1.33333333 11.6666667,1.33333333 C11.1143819,1.33333333 10.6666667,1.78104858 10.6666667,2.33333333 C10.6666667,2.88561808 11.1143819,3.33333333 11.6666667,3.33333333 Z M11.6666667,14.6666667 C12.2189514,14.6666667 12.6666667,14.2189514 12.6666667,13.6666667 C12.6666667,13.1143819 12.2189514,12.6666667 11.6666667,12.6666667 C11.1143819,12.6666667 10.6666667,13.1143819 10.6666667,13.6666667 C10.6666667,14.2189514 11.1143819,14.6666667 11.6666667,14.6666667 Z M4.33333333,7 C3.7810486,7 3.33333333,7.44771527 3.33333333,8 C3.33333333,8.55228473 3.7810486,9 4.33333333,9 C4.88561807,9 5.33333333,8.55228473 5.33333333,8 C5.33333333,7.44771527 4.88561807,7 4.33333333,7 Z"></path>
                            </g>
                        </g>
                    </g>
                </g>
            </g>
        </g>
    </g>
</svg>