<?xml version="1.0" encoding="UTF-8"?>
<svg width="225px" height="214px" viewBox="0 0 225 214" version="1.1" xmlns="http://www.w3.org/2000/svg" xmlns:xlink="http://www.w3.org/1999/xlink">
    <title>mask@1x</title>
    <defs>
        <filter x="-83.8%" y="-83.8%" width="267.5%" height="267.5%" filterUnits="objectBoundingBox" id="filter-1">
            <feOffset dx="0" dy="15" in="SourceAlpha" result="shadowOffsetOuter1"></feOffset>
            <feGaussianBlur stdDeviation="27.5" in="shadowOffsetOuter1" result="shadowBlurOuter1"></feGaussianBlur>
            <feColorMatrix values="0 0 0 0 0.615686275   0 0 0 0 0.639215686   0 0 0 0 0.705882353  0 0 0 0.16 0" type="matrix" in="shadowBlurOuter1" result="shadowMatrixOuter1"></feColorMatrix>
            <feMerge>
                <feMergeNode in="shadowMatrixOuter1"></feMergeNode>
                <feMergeNode in="SourceGraphic"></feMergeNode>
            </feMerge>
        </filter>
    </defs>
    <g id="Page-1" stroke="none" stroke-width="1" fill="none" fill-rule="evenodd">
        <g id="Category" transform="translate(-164.000000, -132.000000)" fill-rule="nonzero">
            <g id="1-copy" filter="url(#filter-1)" transform="translate(195.000000, 185.000000)">
                <g id="Group-10" transform="translate(44.000000, 29.000000)">
                    <g id="Icon" transform="translate(12.000000, 0.000000)">
                        <g id="mask" transform="translate(12.000000, 17.000000)">
                            <path d="M5.46,10.9122 C5.194904,10.9122 4.929444,10.880948 4.68,10.8342 C2.9016,10.475348 1.56,8.899696 1.56,7.0122 C1.56,5.124548 2.9016,3.548948 4.68,3.1902 C4.916132,3.145948 5.167136,3.119532 5.418088,3.116412 L4.68,1.614548 C2.043704,1.988948 0,4.266548 0,7.0122 C0,9.9294 2.293148,12.316148 5.163704,12.4566 C5.2572,12.4722 5.366296,12.4722 5.46,12.4722 C5.896852,12.4722 6.24,12.128948 6.24,11.6922 C6.24,11.255348 5.896852,10.9122 5.46,10.9122 Z" id="Path" fill="#41CFE6"></path>
                            <path d="M21.944,1.614548 L21.338408,3.12962 C21.543704,3.139812 21.7503,3.1538 21.944,3.1902 C23.7224,3.548948 25.064,5.1246 25.064,7.0122 C25.064,8.899748 23.7224,10.475348 21.944,10.8342 C21.694556,10.880948 21.429096,10.9122 21.164,10.9122 C20.727148,10.9122 20.384,11.255348 20.384,11.6922 C20.384,12.128948 20.727148,12.4722 21.164,12.4722 C21.257704,12.4722 21.3668,12.4722 21.460296,12.4566 C24.330852,12.316148 26.624,9.9294 26.624,7.0122 C26.624,4.2666 24.580296,1.988948 21.944,1.614548 Z" id="Path" fill="#1FDFFF"></path>
                            <path d="M21.164,1.5522 L18.725148,1.5522 C17.446052,1.5522 16.338296,1.2558 15.527096,0.6942 C14.872,0.241748 14.092,0.0078 13.312,0.0078 C12.532,0.0078 11.752,0.241748 11.096904,0.6942 C10.285652,1.2558 9.177948,1.5522 7.898852,1.5522 L5.46,1.5522 C5.194904,1.5522 4.929444,1.5678 4.68,1.614548 L4.68,11.6922 C4.68,11.9106 4.773704,12.128948 4.945096,12.2694 C4.960696,12.285 5.0388,12.3474 5.163704,12.4566 C6.006,13.1586 9.318296,15.5922 13.312,15.5922 C17.305704,15.5922 20.618052,13.1586 21.460296,12.4566 C21.5852,12.3474 21.663304,12.285 21.678904,12.2694 C21.850296,12.128948 21.944,11.910652 21.944,11.6922 L21.944,1.614548 C21.694556,1.5678 21.429096,1.5522 21.164,1.5522 Z" id="Path" fill="#41CFE6"></path>
                            <path d="M21.944,1.614548 L21.944,11.6922 C21.944,11.9106 21.850296,12.128948 21.678904,12.2694 C21.663304,12.285 21.5852,12.3474 21.460296,12.4566 C20.618,13.1586 17.305704,15.5922 13.312,15.5922 L13.312,0.0078 C14.092,0.0078 14.872,0.241748 15.527096,0.6942 C16.338348,1.2558 17.446052,1.5522 18.725148,1.5522 L21.164,1.5522 C21.429096,1.5522 21.694556,1.5678 21.944,1.614548 Z" id="Path" fill="#1FDFFF"></path>
                            <path d="M18.772,5.483348 C18.740748,5.888948 18.3976,6.2166 17.992,6.2166 C17.9764,6.2166 17.960748,6.201 17.945148,6.201 C16.197948,6.0918 14.622556,5.6238 13.3276,4.8126 C13.3276,4.8126 13.312,4.8126 13.312,4.8282 C12.001444,5.6238 10.4104,6.0918 8.678852,6.201 C8.2108,6.232252 7.883252,5.9046 7.852,5.483348 C7.820748,5.0466 8.148296,4.6722 8.585148,4.6566 C10.238852,4.5474 11.720748,4.0638 12.890748,3.252548 C13.015652,3.143348 13.171444,3.0966 13.312,3.0966 C13.467948,3.0966 13.639548,3.143348 13.795704,3.252548 C14.918852,4.0638 16.385148,4.5474 18.038852,4.6566 C18.475704,4.6722 18.803252,5.0466 18.772,5.483348 Z" id="Path" fill="#FFFFFF"></path>
                            <path d="M17.212,8.5722 C17.212,9.008948 16.868852,9.3522 16.432,9.3522 L10.192,9.3522 C9.755148,9.3522 9.412,9.008948 9.412,8.5722 C9.412,8.135348 9.755148,7.7922 10.192,7.7922 L16.432,7.7922 C16.868852,7.7922 17.212,8.135348 17.212,8.5722 Z" id="Path" fill="#FFFFFF"></path>
                            <path d="M15.652,11.6922 C15.652,12.128948 15.308852,12.4722 14.872,12.4722 L11.752,12.4722 C11.315148,12.4722 10.972,12.128948 10.972,11.6922 C10.972,11.255348 11.315148,10.9122 11.752,10.9122 L14.872,10.9122 C15.308852,10.9122 15.652,11.255348 15.652,11.6922 Z" id="Path" fill="#FFFFFF"></path>
                            <path d="M15.652,11.6922 C15.652,12.128948 15.308852,12.4722 14.872,12.4722 L13.312,12.4722 L13.312,10.9122 L14.872,10.9122 C15.308852,10.9122 15.652,11.255348 15.652,11.6922 Z" id="Path" fill="#FFFFFF"></path>
                            <path d="M17.212,8.5722 C17.212,9.008948 16.868852,9.3522 16.432,9.3522 L13.312,9.3522 L13.312,7.7922 L16.432,7.7922 C16.868852,7.7922 17.212,8.135348 17.212,8.5722 Z" id="Path" fill="#FFFFFF"></path>
                            <path d="M18.772,5.483348 C18.740748,5.888948 18.3976,6.2166 17.992,6.2166 C17.9764,6.2166 17.960748,6.201 17.945148,6.201 C16.197948,6.0918 14.622556,5.6238 13.3276,4.8126 C13.3276,4.8126 13.312,4.8126 13.312,4.8282 L13.312,3.0966 C13.467948,3.0966 13.639548,3.143348 13.795704,3.252548 C14.918852,4.0638 16.385148,4.5474 18.038852,4.6566 C18.475704,4.6722 18.803252,5.0466 18.772,5.483348 Z" id="Path" fill="#FFFFFF"></path>
                        </g>
                    </g>
                </g>
            </g>
        </g>
    </g>
</svg>