<?xml version="1.0" encoding="UTF-8"?>
<svg width="10px" height="7px" viewBox="0 0 10 7" version="1.1" xmlns="http://www.w3.org/2000/svg" xmlns:xlink="http://www.w3.org/1999/xlink">
    <title>Path@1x</title>
    <g id="Page-1" stroke="none" stroke-width="1" fill="none" fill-rule="evenodd" stroke-linecap="round" stroke-linejoin="round">
        <g id="Interest" transform="translate(-147.000000, -167.000000)" stroke="#FFFFFF" stroke-width="2.13333333">
            <g id="Group-4" transform="translate(20.000000, 142.000000)">
                <g id="Group-3" transform="translate(19.333333, 15.000000)">
                    <g id="Group-2" transform="translate(99.666667, 0.000000)">
                        <g id="check-(2)" transform="translate(9.600000, 10.666667)">
                            <polyline id="Path" points="6.97819089 0.488475774 2.66666667 4.8 0 2.13333333"></polyline>
                        </g>
                    </g>
                </g>
            </g>
        </g>
    </g>
</svg>